<svg xmlns="http://www.w3.org/2000/svg" width="10.55" height="10.575" viewBox="0 0 10.55 10.575">
  <path id="Path_7810" data-name="Path 7810" d="M5.275-8.925V-7.25H.8V-2.8H-.775V-7.25h-4.5V-8.925h4.5v-4.45H.8v4.45Z" transform="translate(5.275 13.375)"/>
</svg>
